Case Studies in Reproducible Research: a spring seminar at UCSC
…
And now we are going to launch directly into having everyone try this out on their own.

Here is a data set of simulation results:

library(tidyverse)
sims <- readRDS("inputs/alewife_snps_100_of_200.rds")

That looks like this:

sims

## # A tibble: 700 × 6
##     iter     repunit   true_rho   rho_mcmc     rho_bh     rho_pb
##    <int>      <fctr>      <dbl>      <dbl>      <dbl>      <dbl>
## 1      1         CAN 0.04573827 0.06489907 0.04550360 0.06226238
## 2      1         NNE 0.06962820 0.07385272 0.05886538 0.06360804
## 3      1          MB 0.14588315 0.21344097 0.21242781 0.22291767
## 4      1         NUN 0.46891013 0.14646259 0.35338886 0.24710874
## 5      1         BIS 0.06644381 0.09336929 0.15767998 0.08005169
## 6      1         LIS 0.15719031 0.35012560 0.11664560 0.27002139
## 7      1 MidAtlantic 0.04620614 0.05784975 0.05548877 0.05403009
## 8      2         CAN 0.02751659 0.02866411 0.02224521 0.02645824
## 9      2         NNE 0.23190134 0.27633524 0.20446014 0.26219858
## 10     2          MB 0.16320168 0.07701908 0.17914736 0.11657221
## # ... with 690 more rows
…
We want to compare the different types of estimated rho’s to the true_rho for each repunit.

But before we do this, there is one more thing we need to know about ggplot: like most of the tidyverse tools, it doesn’t like having multiple columns of the same variable. What do we mean by that? Well, rho_mcmc, rho_bh, and rho_pb are all just different flavors of a variable we might call estimated_rho.

We won’t get to it this quarter, but everyone should read the Tidy Data chapter. It will show how and why we would want to tidy our data to look like this:

tidy_sims <- sims %>%
  tidyr::gather(data = ., key = "estimation_method", value = "estimated_rho", rho_mcmc:rho_pb)

# see what that looks like:
tidy_sims %>%
  arrange(iter, repunit, estimation_method)

## # A tibble: 2,100 × 5
##     iter repunit   true_rho estimation_method estimated_rho
##    <int>  <fctr>      <dbl>             <chr>         <dbl>
## 1      1     CAN 0.04573827            rho_bh    0.04550360
## 2      1     CAN 0.04573827          rho_mcmc    0.06489907
## 3      1     CAN 0.04573827            rho_pb    0.06226238
## 4      1     NNE 0.06962820            rho_bh    0.05886538
## 5      1     NNE 0.06962820          rho_mcmc    0.07385272
## 6      1     NNE 0.06962820            rho_pb    0.06360804
## 7      1      MB 0.14588315            rho_bh    0.21242781
## 8      1      MB 0.14588315          rho_mcmc    0.21344097
## 9      1      MB 0.14588315            rho_pb    0.22291767
## 10     1     NUN 0.46891013            rho_bh    0.35338886
## # ... with 2,090 more rows
…
## Parsed with column specification:
## cols(
##   Record = col_character(),
##   Athlete = col_character(),
##   Nation = col_character(),
##   Venue = col_character(),
##   Date = col_character(),
##   `#[2]` = col_integer()
## )

Great, what do these look like? Try View(pv) if you are following along. Here are the first few rows too:

pv

## # A tibble: 72 × 7
##    Record        Athlete        Nation               Venue       Date
##     <chr>          <chr>         <chr>               <chr>     <date>
## 1  4.02 m    Marc Wright United States     Cambridge, U.S. 1912-06-08
## 2  4.09 m     Frank Foss United States    Antwerp, Belgium 1920-08-20
## 3  4.12 m   Charles Hoff        Norway Copenhagen, Denmark 1922-09-22
## 4  4.21 m   Charles Hoff        Norway Copenhagen, Denmark 1923-07-22
## 5  4.23 m   Charles Hoff        Norway        Oslo, Norway 1925-08-13
## 6  4.25 m   Charles Hoff        Norway      Turku, Finland 1925-09-27
## 7  4.27 m     Sabin Carr United States  Philadelphia, U.S. 1927-05-27
## 8  4.30 m     Lee Barnes United States        Fresno, U.S. 1928-04-28
## 9  4.37 m William Graber United States     Palo Alto, U.S. 1932-07-16
## 10 4.39 m    Keith Brown United States        Boston, U.S. 1935-06-01
## # ... with 62 more rows, and 2 more variables: `#[2]` <int>, Meters <dbl>
…
I used geom_rect() to plot rectangles where the bottom edge is situated at the athlete’s lowest world record. Note how it required massaging some data into the data frame at the beginning.

7.3.6 More! Add some text to it!

Now, I want to try to get every single name in the first time the person set the record. Of course, they won’t all fit exactly at the point (Date and Meters) of each record, so let’s space them out evenly, then draw little line segments to meet up with the records.

We make a new data frame that has just the first time a person got a record

pv1 <- pv %>% 
  filter(`#[2]` == 1)
pv1 # have a look at it

## # A tibble: 34 × 9
##    Record        Athlete        Nation                       Venue
##     <chr>          <chr>         <chr>                       <chr>
## 1  4.02 m    Marc Wright United States             Cambridge, U.S.
## 2  4.09 m     Frank Foss United States            Antwerp, Belgium
## 3  4.12 m   Charles Hoff        Norway         Copenhagen, Denmark
## 4  4.27 m     Sabin Carr United States          Philadelphia, U.S.
## 5  4.30 m     Lee Barnes United States                Fresno, U.S.
## 6  4.37 m William Graber United States             Palo Alto, U.S.
## 7  4.39 m    Keith Brown United States                Boston, U.S.
## 8  4.43 m  George Varoff United States Princeton, New Jersey, U.S.
## 9  4.54 m    Bill Sefton United States           Los Angeles, U.S.
## 10 4.54 m  Earle Meadows United States           Los Angeles, U.S.
## # ... with 24 more rows, and 5 more variables: Date <date>, `#[2]` <int>,
## #   Meters <dbl>, FirstRecordMeters <dbl>, DateNext <date>
…
