Case Studies in Reproducible Research: a spring seminar at UCSC
…
There is a make_bbox function that is supposed to expedite figuring out the zoom, but it has never really worked well for me with Google maps at large zooms. We will see it in action, below, however.

8.3.6 Fish sampling locations

For this, I have whittled down some stuff in the coded wire tag data base to georeferenced marine locations in British Columbia where at least one Chinook salmon was recovered between 2000 and 2012 inclusive. To see how I did all that you can check out this

Let’s have a look at the data:

bc <- readRDS("inputs/bc_sites.rds")

# look at some of it:
bc %>% 
  select(state_or_province:sub_location, longitude, latitude)

## # A tibble: 1,113 × 9
##    state_or_province water_type sector region  area location sub_location
##                <chr>      <chr>  <chr>  <chr> <chr>    <chr>        <chr>
## 1                  2          M      S     22  016   THOR IS           01
## 2                  2          M      N     26  012   MITC BY           18
## 3                  2          M      S     22  015   HARW IS           02
## 4                  2          M      N     26  006   HOPK PT           01
## 5                  2          M      S     23  017   TENT IS           06
## 6                  2          M      S     28  23A   NAHM BY           02
## 7                  2          M      N     26  006   GIL IS            06
## 8                  2          M      S     27  024   CLEL IS           06
## 9                  2          M      S     27  23B   SAND IS           04
## 10                 2          M      N     26  012   DUVA IS           16
## # ... with 1,103 more rows, and 2 more variables: longitude <dbl>,
## #   latitude <dbl>

So, we have 1,113 points to play with.

8.3.6.1 What do we hope to learn?

These locations in BC are hierarchically structured. I am basically interested in how close together sites in the same “region” or “area” or “sector” are, and pondering whether it is OK to aggregate fish recoveries at a certain level for the purposes of getting a better overall estimate of the proportion of fish from different hatcheries in these areas.

So, pretty simple stuff. I just want to plot these points on a map, and paint them a different color according to their sector, region, area, etc.

Let’s just enumerate things first, using dplyr:

bc %>% 
  count(sector, region, area)

## Source: local data frame [42 x 4]
## Groups: sector, region [?]
## 
##    sector region  area     n
##     <chr>  <chr> <chr> <int>
## 1             48  008      1
## 2             48  028      1
## 3             48  311      1
## 4       N     25  001     33
## 5       N     25  003     15
## 6       N     25  004     44
## 7       N     25  02E      2
## 8       N     25  02W     34
## 9       N     26  006     28
## 10      N     26  007     23
## # ... with 32 more rows
…
caps <- read_csv("inputs/state_capitals.csv")

## Parsed with column specification:
## cols(
##   state = col_character(),
##   capital = col_character(),
##   lat = col_double(),
##   long = col_double()
## )

It looks like this:

caps

## # A tibble: 50 × 4
##          state     capital      lat       long
##          <chr>       <chr>    <dbl>      <dbl>
## 1      Alabama  Montgomery 32.36154  -86.27912
## 2       Alaska      Juneau 58.30194 -134.41974
## 3      Arizona     Phoenix 33.44846 -112.07384
## 4     Arkansas Little Rock 34.73601  -92.33112
## 5   California  Sacramento 38.55560 -121.46893
## 6     Colorado      Denver 39.73917 -104.98417
## 7  Connecticut    Hartford 41.76700  -72.67700
## 8     Delaware       Dover 39.16192  -75.52675
## 9      Florida Tallahassee 30.45180  -84.27277
## 10     Georgia     Atlanta 33.76000  -84.39000
## # ... with 40 more rows
…
# look at the range of the lat longs
range(wiwa$lat)

## [1] 35.195 63.716

range(wiwa$long)

## [1] -157.283  -66.700

The data frame looks like this:

wiwa

## # A tibble: 357 × 15
##         ID Short_Name Isotope.Value        Source Species Region  Location
##      <chr>      <chr>         <dbl>         <chr>   <chr>  <lgl>     <chr>
## 1  01N0729    wCAHU01     -94.99667 Kelly_Dec2013    WIWA     NA      Hume
## 2  01N0730    wCAHU02    -119.67951 Kelly_Dec2013    WIWA     NA      Hume
## 3  01N0731    wCAHU03    -102.67823 Kelly_Dec2013    WIWA     NA      Hume
## 4  01N0732    wCAHU04    -100.38197 Kelly_Dec2013    WIWA     NA      Hume
## 5  01N0733    wCAHU05    -102.88861 Kelly_Dec2013    WIWA     NA      Hume
## 6  01N7414    wAKUG11    -102.90747 Kelly_Dec2013    WIWA     NA Ugashik_2
## 7  01N7415    wAKUG12    -120.25431 Kelly_Dec2013    WIWA     NA Ugashik_2
## 8  01N7416    wAKUG13    -116.58946 Kelly_Dec2013    WIWA     NA Ugashik_2
## 9  01N7417    wAKUG14    -124.93382 Kelly_Dec2013    WIWA     NA Ugashik_2
## 10 01N7418    wAKUG15    -114.09978 Kelly_Dec2013    WIWA     NA Ugashik_2
## # ... with 347 more rows, and 8 more variables: Near_Town <chr>,
## #   State <chr>, Country <chr>, Kristina_Notes <lgl>, Age <chr>,
## #   lat <dbl>, long <dbl>, stage <chr>
…
