Case Studies in Reproducible Research: a spring seminar at UCSC
…
Aha! They all have:

data which is a data frame of information about each feature

bbox which is information about the spatial extent of features in the file

proj4string which holds information about the projection (coordinate reference system)

Then, the spatial points have coords while the spatial lines have lines and the spatial polygons have polygons.

Let us look more closely at the data slot in streams. This is just a data frame, and so we can look at it as a tibble:

as_tibble(streams@data)

## # A tibble: 1,514 × 8
##    OBJECTID       STREAM_NM   STREAMTYPE  GNIS_ID     ID ENABLED  Named
## *    <fctr>          <fctr>       <fctr>   <fctr> <fctr>  <fctr> <fctr>
## 1         1     Adams Creek INTERMITTENT       NA      0      NA    Yes
## 2         2      Alba Creek    PERENNIAL 00218063      1      NA    Yes
## 3         3     Amaya Creek    PERENNIAL 00218217      2      NA    Yes
## 4         4 Ano Nuevo Creek    PERENNIAL 00254567      3      NA    Yes
## 5         5     Aptos Creek    PERENNIAL 00254571      4      NA    Yes
## 6         6 Archibald Creek INTERMITTENT 00218350      5      NA    Yes
## 7         7   Baldwin Creek    PERENNIAL 00218614      6      NA    Yes
## 8         8     Bates Creek    PERENNIAL 00218726      7      NA    Yes
## 9         9      Bean Creek    PERENNIAL 00218782      8      NA    Yes
## 10       10   Bennett Creek    PERENNIAL 00219040      9      NA    Yes
## # ... with 1,504 more rows, and 1 more variables: SHAPESTLen <dbl>
…
