Case Studies in Reproducible Research: a spring seminar at UCSC
…
## Parsed with column specification:
## cols(
##   Record = col_character(),
##   Athlete = col_character(),
##   Nation = col_character(),
##   Venue = col_character(),
##   Date = col_character(),
##   `#[2]` = col_integer()
## )

Great, what do these look like? Try View(pv) if you are following along. Here are the first few rows too:

pv

## # A tibble: 72 × 7
##    Record        Athlete        Nation               Venue       Date
##     <chr>          <chr>         <chr>               <chr>     <date>
## 1  4.02 m    Marc Wright United States     Cambridge, U.S. 1912-06-08
## 2  4.09 m     Frank Foss United States    Antwerp, Belgium 1920-08-20
## 3  4.12 m   Charles Hoff        Norway Copenhagen, Denmark 1922-09-22
## 4  4.21 m   Charles Hoff        Norway Copenhagen, Denmark 1923-07-22
## 5  4.23 m   Charles Hoff        Norway        Oslo, Norway 1925-08-13
## 6  4.25 m   Charles Hoff        Norway      Turku, Finland 1925-09-27
## 7  4.27 m     Sabin Carr United States  Philadelphia, U.S. 1927-05-27
## 8  4.30 m     Lee Barnes United States        Fresno, U.S. 1928-04-28
## 9  4.37 m William Graber United States     Palo Alto, U.S. 1932-07-16
## 10 4.39 m    Keith Brown United States        Boston, U.S. 1935-06-01
## # ... with 62 more rows, and 2 more variables: `#[2]` <int>, Meters <dbl>
…
I used geom_rect() to plot rectangles where the bottom edge is situated at the athlete’s lowest world record. Note how it required massaging some data into the data frame at the beginning.

8.2.6 More! Add some text to it!

Now, I want to try to get every single name in the first time the person set the record. Of course, they won’t all fit exactly at the point (Date and Meters) of each record, so let’s space them out evenly, then draw little line segments to meet up with the records.

We make a new data frame that has just the first time a person got a record

pv1 <- pv %>% 
  filter(`#[2]` == 1)
pv1 # have a look at it

## # A tibble: 34 × 9
##    Record        Athlete        Nation                       Venue
##     <chr>          <chr>         <chr>                       <chr>
## 1  4.02 m    Marc Wright United States             Cambridge, U.S.
## 2  4.09 m     Frank Foss United States            Antwerp, Belgium
## 3  4.12 m   Charles Hoff        Norway         Copenhagen, Denmark
## 4  4.27 m     Sabin Carr United States          Philadelphia, U.S.
## 5  4.30 m     Lee Barnes United States                Fresno, U.S.
## 6  4.37 m William Graber United States             Palo Alto, U.S.
## 7  4.39 m    Keith Brown United States                Boston, U.S.
## 8  4.43 m  George Varoff United States Princeton, New Jersey, U.S.
## 9  4.54 m    Bill Sefton United States           Los Angeles, U.S.
## 10 4.54 m  Earle Meadows United States           Los Angeles, U.S.
## # ... with 24 more rows, and 5 more variables: Date <date>, `#[2]` <int>,
## #   Meters <dbl>, FirstRecordMeters <dbl>, DateNext <date>
…
