Case Studies in Reproducible Research: a spring seminar at UCSC
…
tibble doesn’t do partial name matching $x\(\neq\)$xyz

Square bracket extraction of a single column of a tibble retains its tibbleness. Not so with data.frame. With data.frame it gets turned into a vector.

$ extraction with tibble returns a vector.

Let’s make mtcars a tibble

mtcars_t <- as_tibble(mtcars)
var <- "mpg"

# this will get the "mpg" column out but retain it as a tibble
mtcars_t[, var]

## # A tibble: 32 × 1
##      mpg
##    <dbl>
## 1   21.0
## 2   21.0
## 3   22.8
## 4   21.4
## 5   18.7
## 6   18.1
## 7   14.3
## 8   24.4
## 9   22.8
## 10  19.2
## # ... with 22 more rows
…
